2014 328 11 24 04 25 00 00 -18.41245 21.86501 0.0 1.0 0
2014 328 11 24 05 25 00 00 -18.56569 21.98446 0.0 1.0 0
2014 328 11 24 06 25 00 00 -18.71686 22.10817 0.0 1.0 0
2014 328 11 24 07 15 00 00 -18.86556 22.22697 0.0 1.0 0
2014 328 11 24 08 05 00 00 -18.98805 22.27283 0.0 1.0 0
2014 328 11 24 08 55 00 00 -19.20719 22.18723 0.0 1.0 0
2014 328 11 24 10 15 00 00 -19.50078 22.10373 0.0 1.0 0
2014 328 11 24 11 15 00 00 -19.79268 22.19874 0.0 1.0 0
2014 328 11 24 12 05 00 00 -20.00028 22.30385 0.0 1.0 0
2014 328 11 24 13 35 00 00 -20.09811 22.52408 0.0 1.0 0
2014 328 11 24 14 35 00 00 -20.18648 22.77033 0.0 1.0 0
2014 328 11 24 04 10 00 00 -20.26686 23.06790 0.0 1.0 0
2014 328 11 24 06 40 00 00 -20.31324 23.33637 0.0 1.0 0
2014 328 11 24 08 20 00 00 -20.49126 23.44090 0.0 1.0 0
2014 328 11 24 09 30 00 00 -20.60987 23.57030 0.0 1.0 0
2014 328 11 24 08 00 00 00 -20.97741 23.77326 0.0 1.0 0
2014 329 11 25 08 50 00 00 -21.12004 23.97861 0.0 1.0 0
2014 329 11 25 08 50 00 00 -21.26085 24.09000 0.0 1.0 0
2014 329 11 25 10 00 00 00 -21.44555 24.23694 0.0 1.0 0
2015 222 08 10 15 50 59 10 -24.80900 27.48600 2.00000 1.8 1
2015 207 07 26 05 58 17 10 -19.64100 23.62100 5.00000 3.0 1
2015 201 07 20 16 24 11 80 -15.51700 26.61900 10.00000 1.5 1
2015 181 06 30 13 09 01 30 -24.49100 28.14700 5.00000 1.7 1
2015 176 06 25 21 53 29 30 -24.85000 27.30300 2.00000 1.8 1
2015 174 06 23 13 39 40 20 -24.75300 27.26900 2.00000 2.0 1
2015 174 06 23 11 53 33 60 -24.92300 27.16300 2.00000 1.7 1
2015 170 06 19 13 06 56 40 -24.83700 27.28300 2.00000 2.2 1
2015 160 06 09 13 47 06 60 -24.78700 27.28200 2.00000 1.9 1
2015 157 06 06 00 47 12 40 -23.62200 26.50200 5.00000 2.0 1
2015 155 06 04 20 39 53 43 -18.15460 24.58410 10.00000 3.1 1
2015 153 06 02 14 43 20 20 -24.96200 27.07300 2.00000 2.2 1
2015 153 06 02 11 46 40 80 -24.21900 24.64400 10.00000 3.4 1
2015 152 06 01 15 02 09 90 -23.52000 23.83600 10.00000 3.3 1
2015 149 05 29 02 54 43 40 -24.97700 27.13700 2.00000 2.0 1
2015 130 05 10 13 16 39 30 -24.91200 29.68000 5.00000 3.3 1
2015 126 05 06 21 54 43 80 -16.00600 25.71600 10.00000 2.0 1
2015 121 05 01 04 34 54 70 -16.24400 20.70200 10.00000 3.3 1
2015 118 04 28 02 10 17 60 -24.80600 27.22700 2.00000 1.9 1
2015 117 04 27 14 01 10 60 -22.84400 21.96700 5.00000 3.4 1
2015 110 04 20 04 41 35 60 -16.91000 25.64500 10.00000 2.1 1
2015 107 04 17 16 17 54 80 -17.12200 27.20500 10.00000 2.0 1
2015 104 04 14 15 49 02 90 -24.94600 27.14500 2.00000 1.8 1
2015 097 04 07 09 45 49 40 -24.91200 27.73800 2.00000 2.1 1
2015 096 04 06 09 46 46 00 -16.03100 25.68500 10.00000 1.4 1
2015 095 04 05 08 47 43 70 -24.76500 27.41300 2.00000 1.9 1
2015 081 03 22 15 02 02 10 -17.50900 27.70500 10.00000 3.4 1
2015 076 03 17 05 29 55 80 -22.32800 29.28800 10.00000 2.6 1
2015 075 03 16 04 34 15 50 -24.68300 27.23600 2.00000 1.6 1
2015 071 03 12 20 21 18 50 -24.70100 27.40200 2.00000 1.7 1
2015 069 03 10 16 08 53 50 -21.37300 25.88700 10.00000 3.4 1
2015 069 03 10 05 08 31 60 -20.53700 26.21300 10.00000 2.9 1
2015 064 03 05 14 06 37 50 -21.80100 25.99600 10.00000 3.3 1
2015 063 03 04 10 56 04 20 -24.84500 27.33900 2.00000 2.4 1
2015 056 02 25 20 01 07 50 -20.29100 23.56900 5.00000 2.2 1
2015 042 02 11 15 55 44 30 -18.19600 27.50000 5.00000 3.5 1
2015 041 02 10 14 00 37 80 -24.98300 28.74200 5.00000 2.0 1
2015 041 02 10 08 23 06 80 -24.86800 27.40200 2.00000 1.7 1
2015 041 02 10 07 12 24 90 -24.69000 27.20700 2.00000 2.4 1
2015 035 02 04 16 09 34 70 -24.13900 28.98100 5.00000 1.7 1
2015 035 02 04 12 02 23 50 -24.84600 27.20800 2.00000 1.8 1
2015 033 02 02 00 31 26 20 -19.26300 23.43300 5.00000 2.9 1
2015 013 01 13 12 24 48 70 -24.04200 28.86900 5.00000 1.7 1
2015 006 01 06 00 23 38 80 -24.63700 26.51600 5.00000 1.8 1
2014 365 12 31 18 53 21 00 -16.36600 26.69400 4.10000 3.4 1
2014 365 12 31 12 40 56 40 -24.10600 28.97400 5.00000 2.1 1
2014 363 12 29 11 48 12 40 -23.48500 26.59400 10.00000 3.4 1
2014 358 12 24 07 31 04 30 -24.95000 27.68300 2.00000 2.1 1
2014 356 12 22 08 45 53 50 -24.76400 27.09700 2.00000 1.6 1
2014 351 12 17 12 48 12 00 -24.33200 28.94800 5.00000 2.3 1
2014 339 12 05 18 30 21 50 -24.79200 26.51000 5.00000 1.9 1
2014 336 12 02 14 12 37 10 -24.53500 26.32200 5.00000 1.7 1
2014 324 11 20 01 53 56 10 -24.81800 27.32200 2.00000 1.4 1
2014 309 11 05 19 22 35 40 -24.92400 27.17600 2.00000 1.7 1
2014 300 10 27 19 43 52 41 -23.47290 26.90570 10.00000 2.0 1
2014 299 10 26 15 45 48 10 -18.38300 26.78000 0.10000 3.4 1
2014 298 10 25 05 08 17 97 -21.04940 26.52650 10.00000 3.5 1
2014 289 10 16 07 30 31 00 -24.67400 27.26300 2.00000 1.8 1
2014 287 10 14 13 38 49 00 -24.71200 27.89000 2.00000 2.1 1
2014 285 10 12 16 54 07 50 -16.38500 26.68600 10.00000 1.1 1
2014 284 10 11 14 20 58 70 -24.91300 29.49100 5.00000 1.8 1
2014 280 10 07 13 32 29 30 -23.43400 25.07100 5.00000 2.1 1
2014 277 10 04 23 23 35 10 -17.29200 25.33800 10.00000 3.0 1
2014 277 10 04 23 23 31 30 -17.98500 27.56300 5.00000 2.4 1
2014 277 10 04 15 50 30 10 -15.82400 26.60300 10.00000 1.8 1
2014 275 10 02 11 51 22 70 -23.29100 27.10400 5.00000 2.1 1
2014 271 09 28 15 25 56 10 -17.11400 27.69700 10.00000 2.8 1
2014 270 09 27 12 35 25 60 -24.46100 24.68700 5.00000 2.0 1
2014 266 09 23 13 53 51 90 -24.99100 27.03900 2.00000 1.6 1
2014 264 09 21 09 38 54 10 -16.27700 27.78800 10.00000 1.9 1
2014 261 09 18 23 20 21 00 -15.16700 27.57400 10.00000 3.3 1
2014 256 09 13 11 09 31 10 -15.18800 27.22100 10.00000 2.3 1
2014 253 09 10 21 28 42 00 -24.81200 27.23800 2.00000 1.7 1
2014 246 09 03 19 22 28 10 -15.84400 26.30100 10.00000 1.1 1
2014 244 09 01 12 37 33 80 -24.06700 28.97200 5.00000 1.7 1
2014 241 08 29 03 54 15 10 -20.22100 20.00900 78.40000 2.7 1
2014 241 08 29 03 53 15 10 -21.97600 22.43000 80.70000 2.7 1
2014 239 08 27 15 07 06 60 -24.95800 23.22600 5.00000 2.0 1
2014 237 08 25 16 49 24 20 -24.60200 29.59200 5.00000 2.0 1
2014 234 08 22 21 28 58 40 -18.23700 26.70200 10.00000 3.2 1
2014 226 08 14 14 39 13 10 -15.66700 25.25600 10.00000 3.3 1
2014 226 08 14 11 33 50 60 -24.67100 28.99100 5.00000 2.2 1
2014 225 08 13 12 56 14 10 -23.95000 28.90100 5.00000 1.9 1
2014 223 08 11 16 37 45 40 -15.42200 26.94100 10.00000 1.9 1
2014 221 08 09 02 02 53 30 -15.77700 26.87600 10.00000 2.5 1
2014 219 08 07 14 20 32 80 -22.13600 26.62800 10.00000 2.9 1
2014 219 08 07 09 13 34 30 -24.39600 26.94400 10.00000 3.4 1
2014 212 07 31 13 07 31 70 -23.90600 28.88500 5.00000 2.0 1
2014 211 07 30 11 30 59 00 -16.02300 25.96000 10.00000 2.6 1
2014 206 07 25 11 47 37 50 -23.43200 26.31000 10.00000 3.4 1
2014 200 07 19 21 58 06 00 -24.26200 25.60700 5.00000 2.0 1
2014 193 07 12 02 54 03 80 -15.83100 25.97500 10.00000 1.6 1
2014 192 07 11 12 48 46 70 -23.89800 28.82500 5.00000 2.0 1
2014 191 07 10 13 41 00 70 -24.95600 25.10500 5.00000 2.2 1
2014 183 07 02 03 56 57 40 -17.54600 23.52300 10.00000 3.2 1
2014 178 06 27 16 47 40 10 -16.39400 25.93400 10.00000 2.8 1
2014 176 06 25 17 05 48 85 -24.93390 29.08610 8.80000 2.9 1
2014 168 06 17 10 55 12 50 -24.78500 27.16100 2.00000 2.0 1
2014 167 06 16 13 16 15 60 -24.74300 27.28200 2.00000 1.7 1
2014 164 06 13 21 04 37 80 -17.62000 25.54400 10.00000 2.7 1
2014 164 06 13 12 59 17 50 -24.88600 27.23300 2.00000 1.9 1
2014 157 06 06 15 30 40 40 -23.48200 24.91400 5.00000 2.1 1
2014 157 06 06 11 07 45 20 -24.66900 27.30800 2.00000 2.2 1
2014 154 06 03 14 07 52 90 -24.34700 23.94800 0.10000 3.2 1
2014 154 06 03 11 12 10 50 -15.91300 26.30100 10.00000 1.1 1
2014 154 06 03 04 39 26 60 -16.59860 28.15780 7.00000 3.4 1
2014 151 05 31 15 13 44 80 -15.04400 26.11900 10.00000 1.4 1
2014 150 05 30 00 02 44 27 -16.55030 28.69150 10.00000 2.9 1
2014 148 05 28 09 19 32 80 -18.24000 28.98200 10.00000 3.1 1
2014 143 05 23 05 35 57 80 -16.52500 25.27100 10.00000 2.1 1
2014 142 05 22 11 39 57 50 -17.10400 26.06000 10.00000 2.2 1
2014 141 05 21 18 36 20 28 -15.58050 29.98620 10.00000 3.5 1
2014 135 05 15 08 30 36 40 -24.71400 27.27700 2.00000 2.1 1
2014 134 05 14 13 03 21 30 -23.95300 28.83500 5.00000 1.9 1
2014 132 05 12 14 29 29 20 -24.57400 28.18700 5.00000 1.8 1
2014 130 05 10 08 22 26 80 -24.65200 27.44800 2.00000 2.1 1
2014 128 05 08 12 06 04 70 -23.73300 29.37300 5.00000 1.9 1
2014 126 05 06 03 46 17 20 -16.47700 29.00900 10.00000 2.8 1
2014 120 04 30 12 02 16 50 -24.03500 28.71200 5.00000 1.9 1
2014 106 04 16 14 49 55 10 -23.95600 28.84800 5.00000 2.1 1
2014 100 04 10 15 12 29 90 -24.99400 27.66500 10.00000 3.0 1
2014 100 04 10 13 46 31 00 -24.39000 23.43200 3.00000 3.0 1
2014 100 04 10 12 02 23 44 -24.17600 28.58850 10.00000 3.5 1
2014 100 04 10 10 52 55 09 -24.82320 29.04950 10.00000 3.5 1
2014 096 04 06 05 36 22 60 -15.21600 25.46500 10.00000 2.3 1
2014 095 04 05 09 41 28 90 -22.95100 22.95000 10.00000 3.3 1
2014 095 04 05 01 17 50 70 -16.12400 26.32900 10.00000 1.8 1
2014 095 04 05 00 41 01 40 -18.17600 25.64300 10.00000 2.8 1
2014 094 04 04 14 00 01 90 -24.72600 27.67300 2.00000 2.0 1
2014 094 04 04 13 34 50 90 -24.79800 27.77600 2.00000 2.8 1
2014 094 04 04 10 21 38 10 -24.60500 28.03600 5.00000 1.9 1
2014 093 04 03 11 44 33 60 -15.47100 27.09000 10.00000 1.9 1
2014 092 04 02 15 21 22 40 -23.72500 23.39700 10.00000 3.1 1
2014 092 04 02 07 50 51 30 -24.71200 27.68300 2.00000 2.2 1
2014 091 04 01 12 11 24 80 -24.11900 29.06900 10.00000 3.2 1
2014 091 04 01 08 46 31 90 -24.71900 27.87900 2.00000 3.1 1
2014 088 03 29 04 21 35 28 -22.89570 23.91120 10.00000 2.4 1
2014 087 03 28 12 59 32 10 -23.53400 26.02900 0.00000 2.9 1
2014 087 03 28 11 49 34 30 -23.05800 25.81600 27.40000 2.9 1
2014 086 03 27 15 32 17 80 -24.92900 29.01000 5.00000 2.1 1
2014 086 03 27 10 00 13 40 -24.29500 26.90900 10.00000 3.1 1
2014 085 03 26 15 46 40 20 -24.77800 27.99100 5.00000 2.3 1
2014 085 03 26 14 18 37 00 -24.35100 28.47200 5.00000 2.2 1
2014 081 03 22 12 26 19 20 -23.33600 24.31700 10.00000 3.0 1
2014 080 03 21 16 18 08 80 -24.78500 28.62600 10.00000 3.4 1
2014 080 03 21 06 53 02 50 -24.19500 25.57600 10.00000 3.3 1
2014 068 03 09 02 35 57 20 -24.85300 27.15100 2.00000 1.7 1
2014 067 03 08 12 41 36 80 -24.64200 27.61500 0.00000 1.7 1
2014 067 03 08 02 12 28 88 -17.98990 26.24550 13.80000 3.5 1
2014 066 03 07 11 08 20 90 -21.54110 25.82090 10.00000 3.5 1
2014 064 03 05 13 11 27 40 -23.80600 28.60500 0.00000 3.4 1
2014 063 03 04 12 27 29 40 -23.55700 27.36400 16.20000 3.2 1
2014 060 03 01 17 20 58 11 -23.72160 23.82650 10.00000 1.7 1
2014 056 02 25 12 19 17 50 -22.85600 26.84000 5.00000 2.1 1
2014 053 02 22 10 45 11 70 -15.88400 27.22700 10.00000 1.6 1
2014 052 02 21 01 38 56 90 -16.02500 26.05600 10.00000 1.0 1
2014 051 02 20 13 42 52 00 -24.75000 27.17900 2.00000 2.0 1
2014 051 02 20 12 59 49 50 -24.80700 27.13500 2.00000 2.3 1
2014 047 02 16 15 21 26 40 -15.18900 27.34500 10.00000 2.1 1
2014 045 02 14 14 00 27 10 -24.82000 24.76900 5.00000 2.0 1
2014 043 02 12 12 45 09 10 -24.00900 28.82400 5.00000 2.1 1
2014 031 01 31 12 38 29 60 -16.85900 27.35100 10.00000 1.8 1
2014 031 01 31 03 19 04 70 -16.85200 20.77100 10.00000 3.3 1
2014 031 01 31 03 18 58 90 -16.81300 27.26400 10.00000 3.4 1
2014 030 01 30 14 04 29 50 -17.33100 24.54200 10.00000 1.8 1
2014 027 01 27 08 05 44 47 -17.03280 27.47530 10.00000 2.2 1
2014 022 01 22 08 31 10 90 -23.31600 24.59800 10.00000 3.2 1
2014 021 01 21 12 03 35 70 -22.10500 29.63000 5.00000 2.5 1
2014 020 01 20 13 50 41 60 -24.98400 21.41800 5.00000 1.9 1
2014 020 01 20 01 52 52 60 -15.09600 23.86800 10.00000 3.4 1
2014 018 01 18 09 52 59 10 -21.45900 25.57000 10.00000 3.4 1
2014 014 01 14 15 06 58 10 -24.77500 26.43600 5.00000 1.9 1
2014 014 01 14 07 03 49 20 -19.28500 28.83200 10.00000 2.9 1
2014 009 01 09 14 08 32 30 -24.48500 29.55700 5.00000 2.1 1
2014 004 01 04 11 41 43 32 -24.37210 29.71020 10.00000 3.5 1
2013 365 12 31 14 11 04 60 -15.56100 27.54700 10.00000 1.4 1
2013 355 12 21 20 01 27 50 -17.81100 26.14800 10.00000 1.8 1
2013 353 12 19 12 15 01 37 -23.77350 27.29980 10.00000 2.4 1
2013 345 12 11 14 22 28 40 -24.49600 22.82700 10.00000 3.2 1
2013 343 12 09 09 19 42 10 -16.61800 27.91400 10.00000 2.0 1
2013 333 11 29 14 05 02 40 -15.60000 24.06500 10.00000 1.6 1
2013 319 11 15 15 50 30 70 -24.54000 23.86900 5.00000 1.9 1
2013 319 11 15 12 23 48 60 -24.19900 28.99300 5.00000 1.7 1
2013 306 11 02 12 36 14 40 -15.35600 26.72500 10.00000 2.0 1
2013 305 11 01 13 22 18 70 -24.68600 26.29700 5.00000 1.5 1
2013 297 10 24 15 08 14 20 -24.99500 27.08700 2.00000 1.7 1
2013 285 10 12 19 39 40 70 -18.62300 24.62400 10.00000 3.1 1
2013 281 10 08 20 15 53 70 -24.75500 26.39800 5.00000 1.7 1
2013 281 10 08 08 23 48 70 -24.77200 27.36900 2.00000 1.8 1
2013 278 10 05 05 59 08 30 -15.76300 25.97200 10.00000 3.1 1
2013 273 09 30 11 45 43 10 -23.52900 28.09200 0.00000 3.3 1
2013 271 09 28 06 51 48 10 -24.98900 27.04700 2.00000 1.7 1
2013 254 09 11 21 04 36 60 -15.00400 20.98300 10.00000 2.6 1
2013 254 09 11 12 02 33 80 -23.83500 28.76300 5.00000 1.8 1
2013 254 09 11 11 57 28 70 -23.52100 28.81100 34.60000 3.0 1
2013 254 09 11 09 56 02 80 -24.92300 27.90000 2.00000 2.1 1
2013 251 09 08 13 18 09 40 -23.86000 24.70200 5.00000 2.2 1
2013 248 09 05 14 12 16 86 -18.63990 26.08300 10.00000 3.5 1
2013 247 09 04 11 50 50 40 -24.35800 23.53700 5.00000 1.8 1
2013 243 08 31 23 31 36 20 -24.93500 27.18400 2.00000 1.6 1
2013 242 08 30 21 37 24 90 -15.74600 26.00900 10.00000 3.1 1
2013 240 08 28 15 33 10 40 -24.59700 26.56700 5.00000 2.0 1
2013 229 08 17 14 15 11 80 -22.19800 26.40500 12.20000 3.2 1
2013 229 08 17 09 08 40 00 -18.34800 27.43500 10.00000 2.7 1
2013 227 08 15 08 57 06 10 -22.65000 29.98400 10.00000 2.5 1
2013 226 08 14 13 15 27 30 -15.13100 22.91900 10.00000 1.0 1
2013 226 08 14 10 38 33 70 -24.80500 21.50200 5.00000 1.9 1
2013 225 08 13 12 15 07 60 -24.66600 20.67100 5.00000 2.2 1
2013 225 08 13 00 58 31 90 -16.01100 27.45400 0.00000 3.2 1
2013 224 08 12 11 39 46 10 -23.57900 27.32000 10.00000 3.3 1
2013 219 08 07 11 44 33 28 -23.44390 27.34690 10.00000 3.3 1
2013 216 08 04 13 23 04 50 -24.09000 24.98800 5.00000 1.7 1
2013 213 08 01 23 20 09 10 -15.46500 24.80900 10.00000 1.6 1
2013 210 07 29 11 09 28 70 -18.49400 26.45100 10.00000 2.6 1
2013 208 07 27 05 26 49 00 -17.25400 22.08800 10.00000 3.0 1
2013 201 07 20 16 01 15 10 -18.86500 25.86300 18.90000 3.3 1
2013 200 07 19 09 35 57 40 -24.35800 29.64700 18.70000 3.3 1
2013 197 07 16 13 08 12 50 -23.94400 25.10600 5.00000 2.3 1
2013 197 07 16 12 48 57 10 -22.55100 29.28100 0.00000 3.0 1
2013 193 07 12 11 39 43 70 -23.98900 27.62700 10.00000 3.3 1
2013 192 07 11 14 39 03 40 -20.14200 25.37700 0.00000 3.2 1
2013 192 07 11 11 42 18 60 -23.58700 28.66400 10.00000 3.4 1
2013 191 07 10 18 00 52 77 -21.60700 28.38160 10.00000 3.0 1
2013 191 07 10 14 08 39 70 -22.60700 29.39100 13.00000 2.3 1
2013 190 07 09 13 01 18 50 -24.55000 20.52600 5.00000 2.2 1
2013 188 07 07 02 27 56 60 -24.79800 27.37000 2.00000 1.8 1
2013 186 07 05 13 55 18 90 -24.53000 20.97600 5.00000 2.3 1
2013 182 07 01 11 42 17 49 -24.30730 28.21570 10.00000 2.3 1
2013 182 07 01 01 08 07 20 -16.66200 24.55900 10.00000 1.7 1
2013 181 06 30 14 08 57 10 -19.81600 25.45800 0.00000 3.5 1
2013 181 06 30 13 17 39 80 -21.13000 27.72100 12.60000 2.3 1
2013 179 06 28 13 13 32 70 -22.61800 29.29100 0.00000 2.7 1
2013 178 06 27 12 53 36 30 -24.96500 27.08100 2.00000 1.8 1
2013 176 06 25 14 54 03 10 -22.50500 29.38500 4.00000 2.3 1
2013 176 06 25 11 49 19 90 -23.41700 28.08700 0.00000 2.9 1
2013 173 06 22 11 36 58 50 -22.65300 28.84000 4.00000 2.4 1
2013 173 06 22 08 05 52 10 -19.27700 26.26700 10.00000 3.3 1
2013 172 06 21 21 07 50 50 -24.79000 27.23200 2.00000 1.7 1
2013 169 06 18 14 39 08 50 -22.39500 29.96900 0.00000 2.9 1
2013 162 06 11 14 09 21 50 -22.78300 28.80800 10.00000 2.4 1
2013 156 06 05 11 44 12 00 -22.87500 27.61700 10.00000 3.0 1
2013 150 05 30 10 11 34 70 -20.47600 26.18500 10.00000 3.2 1
2013 146 05 26 21 16 04 50 -24.05500 25.33500 5.00000 1.8 1
2013 145 05 25 14 08 59 30 -23.89100 23.71700 5.00000 2.3 1
2013 136 05 16 22 02 17 00 -15.52500 28.88000 21.70000 3.4 1
2013 131 05 11 14 02 55 90 -24.61000 26.89300 5.00000 2.2 1
2013 128 05 08 10 37 43 70 -24.65600 27.25500 2.00000 2.3 1
2013 125 05 05 01 01 55 90 -24.16500 25.95800 5.00000 1.8 1
2013 109 04 19 11 37 22 00 -22.00800 29.07400 4.40000 3.4 1
2013 108 04 18 16 24 21 00 -18.41700 26.61400 10.00000 3.0 1
2013 107 04 17 17 10 32 10 -18.58000 26.10000 0.00000 3.2 1
2013 105 04 15 13 49 25 80 -20.44300 27.08900 0.00000 2.2 1
2013 103 04 13 15 29 24 60 -17.38400 27.28100 10.00000 3.0 1
2013 101 04 11 11 44 04 30 -24.83500 27.09400 2.00000 2.3 1
2013 085 03 26 15 09 47 50 -20.75300 27.67200 10.00000 3.2 1
2013 084 03 25 16 07 47 00 -21.14700 27.58900 49.10000 3.1 1
2013 075 03 16 16 44 52 90 -24.72200 27.40400 2.00000 1.7 1
2013 073 03 14 02 54 15 50 -24.74300 27.38700 2.00000 1.7 1
2013 070 03 11 14 33 45 90 -24.04400 23.81300 10.00000 3.1 1
2013 069 03 10 22 54 51 50 -17.53100 28.78600 10.00000 2.7 1
2013 068 03 09 14 20 52 00 -20.41800 25.91000 0.00000 3.2 1
2013 064 03 05 21 46 56 50 -24.89200 27.31400 2.00000 1.9 1
2013 064 03 05 12 45 09 30 -22.77500 29.78900 65.70000 2.9 1
2013 064 03 05 10 31 17 30 -24.81800 27.06900 2.00000 1.9 1
2013 062 03 03 00 55 11 20 -17.85500 27.54500 10.00000 3.0 1
2013 062 03 03 00 46 01 20 -17.88900 27.37100 9.90000 3.0 1
2013 059 02 28 09 10 05 80 -24.99200 27.23100 2.00000 2.2 1
2013 048 02 17 16 43 03 08 -24.80230 27.43150 4.30000 1.9 1
2013 042 02 11 13 36 21 00 -24.81700 27.23100 2.00000 1.5 1
2013 042 02 11 03 55 22 40 -24.87200 27.25100 2.00000 1.7 1
2013 039 02 08 15 18 26 56 -24.87610 27.37320 11.40000 2.6 1
2013 032 02 01 12 31 37 10 -24.95400 27.30800 2.00000 2.0 1
2013 025 01 25 17 09 42 60 -22.90800 26.06800 5.00000 2.8 1
2013 024 01 24 12 32 38 20 -24.05600 25.08500 5.00000 2.4 1
2013 022 01 22 15 51 22 10 -23.49200 24.53700 5.00000 2.7 1
2013 012 01 12 13 26 10 70 -21.81100 25.43400 5.00000 2.7 1
2013 009 01 09 12 34 36 60 -24.53100 28.21400 5.00000 2.0 1
2013 009 01 09 09 32 56 00 -24.94200 28.47400 5.00000 2.0 1
2013 002 01 02 00 10 39 90 -24.81800 27.26900 2.00000 1.2 1
